  <CCT>5759.000000</CCT>
  <LuxIdx>157.828445</LuxIdx>
  <Gain>1.701290</Gain>
  <shortGain>1.416406</shortGain>
  <digitalGain>1.000711</digitalGain>
  <ExpSensitivityRatio>3.460692</ExpSensitivityRatio>
  <ExpTimeRatio>1.000000</ExpTimeRatio>
  <ExpGainRatio>3.460692</ExpGainRatio>
  <DrcGain>2.500078</DrcGain>
  <DrcGainDark>1.384234</DrcGainDark>
  <LensPosition>0</LensPosition>
  <HDRMode>0</HDRMode>
  <gain_r>1.984670</gain_r>
  <gain_g>1.009277</gain_g>
  <gain_b>1.622562</gain_b>
  <ExpIdx>157.828445</ExpIdx>
  <PrevExpIdx>157.828445</PrevExpIdx>
